{
  "_t": "VAR_FILE_TYPE",
  "filename": "VAR_FILE_NAME",
  "path": "VAR_FILE_PATH",
  "id": "VAR_FILE_UUID",
  "name": "VAR_FOLDER_NAME - VAR_FILE_NAME",
  "environment": "VAR_MODE",
  "country_code": "FRA",
  "system_id": "VAULT",
  "user": {
    "id": "suricat@catalina.com",
    "email": "suricat@catalina.com"
  },
  "callback_url": "https://VAR_MODE.dashboard.personalization.catalinamarketing.com/targeting/status",
  "metadata": {},
  "date": "VAR_DATE_ZZ",
  "VAR_OBJECT_NAME": {
    "id": "VAR_FOLDER_UUID",
    "name": "VAR_FOLDER_NAME",
    "specifications": []
  },
  "delete": false
}