{
  "ad_rotation_method": "DEFAULT",
  "budget": {
    "caps": [],
    "override": false
  },
  "campaign": {
    "id": "VAR_CAMPAIGN_ID",
    "name": "VAR_CAMPAIGN_NAME"
  },
  "date_modified": "VAR_DATE_MODIFIED",
  "delivery_method": "ACCELERATED",
  "experience": {
    "id": null,
    "name": null,
    "type": null
  },
  "frequency_caps": [],
  "history": {
    "created_by": "Bulk HighCo",
    "created_date": "VAR_DATE_MODIFIED",
    "modified_by": "Bulk HighCo",
    "modified_date": "VAR_DATE_MODIFIED"
  },
  "measurement": {
    "touchpoint": {},
    "user": {}
  },
  "name": "VAR_NAME",
  "ranking": {
    "type": "default"
  },
  "roadblocking": "SINGLE",
  "rules": {
    "limit": {
      "period": null,
      "type": null,
      "value": null
    }
  },
  "start_date": "2019-01-07",
  "status": "DRAFT",
  "stop_date": "2019-01-07",
  "targeting": {
    "audiences": {
      "exclude": [],
      "include": [],
      "override": false
    },
    "locations": {
      "exclude": [],
      "include": [],
      "override": false
    },
    "networks": {
      "exclude": [],
      "include": []
    },
    "placements": {
      "exclude": [],
      "include": []
    },
    "schedule": {
      "exclude": [],
      "include": []
    },
    "touchpoints": {
      "exclude": [],
      "include": [],
      "operation_or": false,
      "override": false
    }
  }
}