{
  "account": {},
  "billing": {
    "bus_seg_descr": "Retail",
    "client": {
      "country": {
        "country_code": "FRA",
        "country_name": "France"
      },
      "external_id": "23",
      "external_system": "3D-FRA",
      "id": "FRA-0023",
      "name": "Carrefour Proxi",
      "parent": null,
      "status": "ACTIVE",
      "text": "FRA-0023 - Carrefour Proxi"
    },
    "client_id": "FRA-0023",
    "client_name": "Carrefour Proxi",
    "country_code": "FRA",
    "date_modified": "2019-01-15T08:59:07.261Z",
    "external_id": "201901-HIGHCO-CRFPROXI",
    "external_system": "MANUAL",
    "id": "FRA-MANUAL-201901-HIGHCO-CRFPROXI",
    "name": "FRA-MANUAL-201901-HIGHCO-CRFPROXI - HighCo CRF Proxi",
    "status": "OPEN",
    "text": "FRA-MANUAL-201901-HIGHCO-CRFPROXI - HighCo CRF Proxi"
  },
  "channels": null,
  "client": {
    "country": {
      "country_code": "FRA",
      "country_name": "France"
    },
    "external_id": "23",
    "external_system": "3D-FRA",
    "id": "FRA-0023",
    "name": "Carrefour Proxi",
    "parent": null,
    "status": "ACTIVE",
    "text": "FRA-0023 - Carrefour Proxi"
  },
  "country_code": "FRA",
  "date_modified": "VAR_DATE_MODIFIED",
  "favorite": false,
  "history": {
    "created_by": "Bulk HighCo",
    "created_date": "VAR_DATE_MODIFIED",
    "modified_by": "Bulk HighCo",
    "modified_date": "VAR_DATE_MODIFIED"
  },
  "ignore_long_term_controls": false,
  "locations": {
    "exclude": [],
    "include": []
  },
  "name": "VAR_NAME",
  "networks": [],
  "publication_errors": [],
  "publication_warnings": [],
  "schedule": {
    "exclude": [],
    "include": []
  },
  "start_date": "2019-01-08",
  "status": "DRAFT",
  "stop_date": "2019-01-08",
  "targeting": {
    "audiences": {
      "exclude": [],
      "include": [],
      "override": false
    },
    "locations": {
      "exclude": [],
      "include": [],
      "override": false
    },
    "schedule": {
      "exclude": [],
      "include": []
    },
    "touchpoints": {
      "exclude": [],
      "include": [
        {
          "country_code": "FRA",
          "download": "/route/dmp/rest/",
          "estimated_reach": 1698,
          "id": "FRA-0023",
          "name": "Carrefour Proxi",
          "text": "Carrefour Proxi - FRA-0023",
          "type": "network",
          "values": [
            {
              "country_code": "FRA",
              "id": 23,
              "name": "Carrefour Proxi"
            }
          ]
        }
      ],
      "modified_date": "VAR_DATE_MODIFIED",
      "operation_or": false,
      "override": true
    }
  },
  "touchpoints": {
    "exclude": [],
    "include": [],
    "operation_or": false
  },
  "type": "DISPLAY"
}