{
  "channel_type": "store",
  "creative_type": "TEMPLATE",
  "creative_variables": [],
  "dpi": "VAR_TEMPLATE_DPI",
  "external_id": "VAR_TEMPLATE_ID",
  "external_system": "BLIP",
  "height": "VAR_TEMPLATE_HEIGHT",
  "id": "VAR_TEMPLATE_ID",
  "metadata": null,
  "mime_type": "VAR_TEMPLATE_MIME_TYPE",
  "name": "VAR_TEMPLATE_NAME",
  "products": null,
  "status": "PUBLISHED",
  "targeting": {},
  "url": "VAR_TEMPLATE_URL",
  "width": "VAR_TEMPLATE_WIDTH"
}