{
  "ad_rotation_method": "DEFAULT",
  "budget": {
    "caps": [],
    "override": false
  },
  "campaign": {},
  "channels": [
    "store"
  ],
  "experience": {
    "id": null,
    "name": null,
    "type": null
  },
  "frequency_caps": [],
  "history": {
    "created_by": "Bulk Manuf",
    "modified_by": "Bulk Manuf"
  },
  "measurement": {
    "touchpoint": {
    },
    "user": {
    }
  },
  "roadblocking": "SINGLE",
  "rules": {
    "limit": {
      "period": null,
      "type": null,
      "value": null
    }
  },
  "start_date": "2019-04-01",
  "status": "DRAFT",
  "stop_date": "2019-06-30",
  "targeting": {
    "audiences": {
      "exclude": [],
      "include": [],
      "override": false
    },
    "locations": {
      "exclude": [],
      "include": [],
      "override": false
    },
    "networks": {
      "exclude": [],
      "include": []
    },
    "placements": {
      "exclude": [],
      "include": []
    },
    "schedule": {
      "exclude": [],
      "include": []
    },
    "touchpoints": {
      "exclude": [],
      "include": [],
      "operation_or": false,
      "override": false
    }
  }
}